#FIG 3.2  Produced by xfig version 3.2.6a
Portrait
Center
Metric
A4
100.00
Single
-3
1200 2
6 6165 2655 6435 2970
1 3 0 1 0 6 51 0 30 0.000 1 0.0000 6300 2790 101 101 6300 2790 6401 2790
1 3 0 1 0 0 55 0 20 0.000 1 0.0000 6334 2835 101 101 6334 2835 6435 2835
2 1 0 1 0 7 50 0 -1 0.000 0 0 -1 0 0 2
	 6300 2745 6300 2835
2 1 0 1 0 7 50 0 -1 0.000 0 0 -1 0 0 2
	 6255 2790 6345 2790
-6
6 585 2115 2295 2205
4 2 0 50 0 16 8 0.0000 6 135 90 2295 2205 0\001
4 2 0 50 0 16 8 0.0000 6 135 90 1935 2205 3\001
4 0 0 50 0 16 8 0.0000 6 135 90 2025 2205 2\001
4 0 0 50 0 16 8 0.0000 6 135 180 585 2205 15\001
-6
2 1 0 1 0 7 50 0 -1 0.000 0 0 -1 1 0 2
	1 1 1.00 60.00 120.00
	 6300 2880 6300 3195
2 2 0 1 0 0 55 -1 20 0.000 0 0 -1 0 0 5
	 4545 3240 8145 3240 8145 3420 4545 3420 4545 3240
2 1 0 1 0 7 50 0 -1 0.000 0 0 -1 0 0 2
	 1980 1845 1980 2025
2 1 0 1 0 7 50 0 -1 0.000 0 0 -1 0 0 2
	 3420 2070 3420 2880
2 1 0 1 0 7 50 0 -1 0.000 0 0 -1 0 0 2
	 3960 2070 3960 2880
2 2 0 1 0 19 51 0 36 0.000 0 0 -1 0 0 5
	 3060 2070 4860 2070 4860 2880 3060 2880 3060 2070
2 2 0 1 0 0 55 -1 20 0.000 0 0 -1 0 0 5
	 3105 2115 4905 2115 4905 2925 3105 2925 3105 2115
2 1 0 1 0 7 50 0 -1 0.000 0 0 -1 0 0 2
	 3060 2385 4860 2385
2 1 0 1 0 7 50 0 -1 0.000 0 0 -1 0 0 2
	 3060 2565 4860 2565
2 2 0 1 0 2 51 -1 34 0.000 0 0 -1 0 0 5
	 4500 1170 8100 1170 8100 1350 4500 1350 4500 1170
2 2 0 1 0 0 55 -1 20 0.000 0 0 -1 0 0 5
	 585 1890 2385 1890 2385 2070 585 2070 585 1890
2 2 0 1 0 0 55 -1 20 0.000 0 0 -1 0 0 5
	 2655 1485 3195 1485 3195 1665 2655 1665 2655 1485
2 1 0 1 0 7 50 0 -1 0.000 0 0 -1 0 0 2
	 6840 3195 6840 3375
2 1 0 1 0 7 50 0 -1 0.000 0 0 -1 0 0 2
	 5715 3195 5715 3375
2 2 0 1 0 0 55 -1 20 0.000 0 0 -1 0 0 5
	 585 3960 1125 3960 1125 4140 585 4140 585 3960
2 1 0 1 0 7 50 0 -1 0.000 0 0 -1 0 0 2
	 2025 4410 2025 5670
2 1 0 1 0 7 50 0 -1 0.000 0 0 -1 0 0 2
	 1710 4860 2610 4860
2 1 0 1 0 7 50 0 -1 0.000 0 0 -1 0 0 2
	 1710 5040 2610 5040
2 2 0 1 0 19 51 0 36 0.000 0 0 -1 0 0 5
	 1710 4410 2610 4410 2610 5670 1710 5670 1710 4410
2 2 0 1 0 0 55 -1 20 0.000 0 0 -1 0 0 5
	 1755 4455 2655 4455 2655 5715 1755 5715 1755 4455
2 1 0 1 0 7 50 0 -1 0.000 0 0 -1 0 0 2
	 3735 4410 3735 5670
2 1 0 1 0 7 50 0 -1 0.000 0 0 -1 0 0 2
	 3420 4905 4320 4905
2 1 0 1 0 7 50 0 -1 0.000 0 0 -1 0 0 2
	 3420 4725 4320 4725
2 2 0 1 0 19 51 0 36 0.000 0 0 7 0 0 5
	 3420 4410 4320 4410 4320 5670 3420 5670 3420 4410
2 2 0 1 0 0 55 -1 20 0.000 0 0 -1 0 0 5
	 3465 4455 4365 4455 4365 5715 3465 5715 3465 4455
2 2 0 1 0 0 55 -1 20 0.000 0 0 -1 0 0 5
	 4545 5940 8145 5940 8145 6120 4545 6120 4545 5940
2 1 0 1 0 7 50 0 -1 0.000 0 0 -1 0 0 2
	 6840 5895 6840 6075
2 2 0 1 0 1 51 -1 34 0.000 0 0 -1 0 0 5
	 4500 5895 8100 5895 8100 6075 4500 6075 4500 5895
2 2 0 1 0 0 55 -1 20 0.000 0 0 -1 0 0 5
	 4545 1215 8145 1215 8145 1395 4545 1395 4545 1215
2 2 0 1 0 21 51 -1 36 0.000 0 0 -1 0 0 5
	 4500 3375 8100 3375 8100 3195 4500 3195 4500 3375
2 2 0 1 0 11 51 0 36 0.000 0 0 7 0 0 5
	 540 1845 2340 1845 2340 2025 540 2025 540 1845
2 2 0 1 0 11 51 0 36 0.000 0 0 7 0 0 5
	 2610 1440 3150 1440 3150 1620 2610 1620 2610 1440
2 2 0 1 0 11 51 0 36 0.000 0 0 7 0 0 5
	 540 3915 1080 3915 1080 4095 540 4095 540 3915
3 0 0 1 0 7 50 0 -1 0.000 0 1 0 5
	1 1 1.00 60.00 120.00
	 4410 2475 5940 2475 6075 2475 6165 2520 6255 2700
	 0.000 1.000 1.000 1.000 0.000
3 0 0 1 0 7 50 0 -1 0.000 0 1 0 6
	1 1 1.00 60.00 120.00
	 4185 4815 5355 4815 5580 4815 5580 5040 5580 5580 5580 5895
	 0.000 1.000 1.000 1.000 1.000 0.000
3 0 0 1 0 7 50 0 -1 0.000 0 1 0 3
	1 1 1.00 60.00 120.00
	 2880 1530 2700 1845 3060 2070
	 0.000 1.000 0.000
3 0 0 1 0 7 50 0 -1 0.000 0 1 0 5
	1 1 1.00 60.00 120.00
	 1350 2025 1350 2340 1350 2475 1485 2475 3060 2475
	 0.000 1.000 1.000 1.000 0.000
3 0 0 1 0 7 50 0 -1 0.000 0 1 0 2
	1 1 1.00 60.00 120.00
	 7470 3375 7470 5895
	 0.000 0.000
3 0 0 1 0 7 50 0 -1 0.000 0 1 0 11
	1 1 1.00 60.00 120.00
	 5130 3375 5130 3510 5130 3690 4950 3690 1440 3690 1260 3690
	 1260 3870 1260 4770 1260 4950 1440 4950 1710 4950
	 0.000 1.000 1.000 1.000 1.000 1.000 1.000 1.000
	 1.000 1.000 0.000
3 0 0 1 0 7 50 0 -1 0.000 0 1 0 11
	1 1 1.00 60.00 120.00
	 6300 3375 6300 3780 6300 3960 6120 3960 3330 3960 3150 3960
	 3150 4095 3150 4635 3150 4815 3285 4815 3420 4815
	 0.000 1.000 1.000 1.000 1.000 1.000 1.000 1.000
	 1.000 1.000 0.000
3 0 0 1 0 7 50 0 -1 0.000 0 1 0 5
	1 1 1.00 60.00 120.00
	 855 4005 1440 4005 1620 4005 1665 4185 1710 4410
	 0.000 1.000 1.000 1.000 0.000
3 0 0 1 0 7 50 0 -1 0.000 0 1 0 10
	1 1 1.00 60.00 120.00
	 2295 4950 2745 4950 2880 4950 2880 4770 2880 4275 2880 4140
	 3015 4140 3240 4140 3330 4140 3420 4410
	 0.000 1.000 1.000 1.000 1.000 1.000 1.000 1.000
	 1.000 0.000
3 0 0 1 0 7 50 0 -1 0.000 0 1 0 2
	1 1 1.00 60.00 120.00
	 6300 1350 6300 2700
	 0.000 0.000
4 1 0 50 0 17 8 0.0000 6 165 810 5130 3330 Directory\001
4 1 0 50 0 17 8 0.0000 6 165 360 6255 3330 Page\001
4 1 0 50 0 17 8 0.0000 6 135 540 7515 3330 Offset\001
4 2 0 50 0 16 8 0.0000 6 135 180 5670 3555 22\001
4 0 0 50 0 16 8 0.0000 6 135 180 5760 3555 21\001
4 2 0 50 0 16 8 0.0000 6 135 180 6795 3555 12\001
4 0 0 50 0 16 8 0.0000 6 135 180 6885 3555 11\001
4 1 0 50 0 17 8 0.0000 6 165 1710 1440 1665 Registre de segment\001
4 1 0 50 0 17 8 0.0000 6 165 2160 1440 1800 (CS, DS, ES, FS, GS, SS)\001
4 1 0 50 0 17 8 0.0000 6 135 450 1350 1980 Index\001
4 1 0 50 0 17 8 0.0000 6 165 270 2160 1980 Flg\001
4 1 0 50 0 17 8 0.0000 6 135 810 2880 1395 GDTR/LDTR\001
4 1 0 50 0 17 8 0.0000 6 135 540 3690 2025 limite\001
4 1 0 50 0 17 8 0.0000 6 165 450 3240 2025 flags\001
4 1 0 50 0 17 8 0.0000 6 135 360 4410 2025 base\001
4 2 0 50 0 16 8 0.0000 6 135 90 3015 2205 0\001
4 2 0 50 0 16 8 0.0000 6 135 360 3015 2835 8191\001
4 1 0 50 0 16 8 0.0000 6 135 180 3240 3060 12\001
4 1 0 50 0 16 8 0.0000 6 135 180 3690 3060 20\001
4 1 0 50 0 16 8 0.0000 6 135 180 4410 3060 32\001
4 1 0 50 0 17 8 0.0000 6 165 1710 3960 1845 Segment descriptors\001
4 0 0 50 0 16 8 0.0000 6 135 180 4545 1530 31\001
4 2 0 50 0 16 8 0.0000 6 135 90 8055 1530 0\001
4 2 0 50 0 16 8 0.0000 6 135 90 8055 3555 0\001
4 0 0 50 0 16 8 0.0000 6 135 180 4545 3555 31\001
4 2 0 50 0 16 8 0.0000 6 135 90 1665 4500 0\001
4 2 0 50 0 16 8 0.0000 6 135 360 1665 5670 1023\001
4 1 0 50 0 17 8 0.0000 6 135 630 2295 4365 adresse\001
4 1 0 50 0 17 8 0.0000 6 165 270 1845 4365 flg\001
4 1 0 50 0 17 8 0.0000 6 165 1260 2160 4230 Page Directory\001
4 1 0 50 0 17 8 0.0000 6 135 180 1845 5850 12\001
4 1 0 50 0 17 8 0.0000 6 135 180 2295 5850 20\001
4 2 0 50 0 16 8 0.0000 6 135 360 3375 5670 1023\001
4 1 0 50 0 17 8 0.0000 6 165 270 3555 4365 flg\001
4 1 0 50 0 17 8 0.0000 6 135 630 4005 4365 adresse\001
4 2 0 50 0 16 8 0.0000 6 135 90 3375 4500 0\001
4 1 0 50 0 17 8 0.0000 6 165 900 3870 4230 Page Table\001
4 1 0 50 0 17 8 0.0000 6 135 180 3555 5850 12\001
4 1 0 50 0 17 8 0.0000 6 135 180 4005 5850 20\001
4 0 0 50 0 16 8 0.0000 6 135 180 4545 6255 31\001
4 2 0 50 0 16 8 0.0000 6 135 90 8055 6255 0\001
4 0 0 50 0 16 8 0.0000 6 135 180 6885 6255 11\001
4 2 0 50 0 16 8 0.0000 6 135 180 6795 6255 12\001
4 1 0 50 0 19 8 0.0000 6 165 1350 6300 1080 Adresse logique\001
4 1 0 50 0 19 8 0.0000 6 165 1440 6300 5805 Adresse physique\001
4 1 0 50 0 17 8 0.0000 6 135 270 810 3870 CR3\001
