#FIG 3.2  Produced by xfig version 3.2.5c
Landscape
Center
Metric
A4      
100.00
Single
-2
1200 2
6 3600 360 4500 1260
1 1 0 1 0 11 51 -1 36 0.000 1 0.0000 4050 450 450 90 4050 450 4500 450
1 1 0 1 0 11 53 -1 36 0.000 1 0.0000 4050 1170 450 90 4050 1170 4500 1170
2 2 0 0 0 11 52 -1 36 0.000 0 0 -1 0 0 5
	 3600 450 4500 450 4500 1170 3600 1170 3600 450
2 1 0 1 0 11 51 -1 36 0.000 0 0 -1 0 0 2
	 3600 450 3600 1170
2 1 0 1 0 11 51 -1 36 0.000 0 0 -1 0 0 2
	 4500 450 4500 1170
-6
6 2925 1125 3645 1485
4 1 20 50 -1 16 6 0.0000 4 90 660 3285 1215 4 : recopie du\001
4 1 20 50 -1 16 6 0.0000 4 75 660 3285 1350 buffer modifi\351\001
4 1 20 50 -1 16 6 0.0000 4 75 570 3285 1485 vers le bloc\001
-6
6 2790 225 3780 450
4 1 20 50 -1 16 6 0.0000 4 75 930 3285 315 1a : lecture du bloc\001
4 1 20 50 -1 16 6 0.0000 4 75 690 3285 450 dans un buffer\001
-6
1 1 0 1 0 0 60 -1 20 0.000 1 0.0000 4095 495 450 90 4095 495 4545 585
1 1 0 1 0 0 60 -1 20 0.000 1 0.0000 4095 1215 450 90 4095 1215 4545 1305
2 2 0 1 0 13 51 -1 36 0.000 0 0 -1 0 0 5
	 1800 540 2880 540 2880 1350 1800 1350 1800 540
2 2 0 1 0 13 50 -1 36 0.000 0 0 -1 0 0 5
	 3915 765 4095 765 4095 855 3915 855 3915 765
2 1 1 1 0 7 60 -1 -1 4.000 0 0 -1 0 0 2
	 1530 135 1530 1980
2 1 1 1 0 7 60 -1 -1 4.000 0 0 -1 0 0 2
	 3285 135 3285 1980
2 2 0 1 0 0 60 -1 20 0.000 0 0 -1 0 0 5
	 1845 585 2925 585 2925 1395 1845 1395 1845 585
2 2 0 1 0 0 60 -1 20 0.000 0 0 -1 0 0 5
	 3645 495 4545 495 4545 1215 3645 1215 3645 495
3 0 0 1 20 7 50 -1 -1 0.000 0 1 0 3
	1 1 1.00 45.00 90.00
	 1935 630 1440 630 1125 360
	 0.000 1.000 0.000
3 0 0 1 20 7 50 -1 -1 0.000 0 1 0 3
	1 1 1.00 45.00 90.00
	 2070 630 1620 855 1260 765
	 0.000 1.000 0.000
3 0 0 1 20 7 50 -1 -1 0.000 0 1 0 3
	1 1 1.00 45.00 90.00
	 1007 1173 1665 1170 2295 675
	 0.000 1.000 0.000
3 0 0 1 20 7 50 -1 -1 0.000 0 1 0 4
	1 1 1.00 45.00 90.00
	 2880 1035 3330 1080 4005 1080 4005 855
	 0.000 1.000 1.000 0.000
3 0 0 1 20 7 50 -1 -1 0.000 0 1 0 4
	1 1 1.00 45.00 90.00
	 4005 765 3960 630 3465 495 2880 585
	 0.000 1.000 1.000 0.000
4 0 1 50 -1 16 6 0.0000 4 105 885 360 360 n = read (fd, &c, 1)\001
4 0 1 50 -1 16 6 0.0000 4 15 90 360 540 ...\001
4 0 1 50 -1 16 6 0.0000 4 105 945 360 765 n2 = read (fd, &b, 3)\001
4 0 1 50 -1 16 6 0.0000 4 15 90 360 945 ...\001
4 0 1 50 -1 16 6 0.0000 4 105 720 360 1170 write (fd, &d, 2)\001
4 1 0 50 -1 16 8 0.0000 4 105 360 2340 1530 buffer\001
4 1 0 50 -1 16 8 0.0000 4 135 405 4050 1440 disque\001
4 0 0 50 -1 17 6 0.0000 4 90 930 360 1575 beaucoup plus tard\001
4 0 1 50 -1 16 6 0.0000 4 15 90 360 1350 ...\001
4 1 0 60 -1 17 8 0.0000 4 105 705 765 1980 processus\001
4 1 0 60 -1 17 8 0.0000 4 135 750 4050 1980 p\351riph\351rique\001
4 1 0 60 -1 17 8 0.0000 4 135 1155 2340 1980 m\351moire du noyau\001
4 2 20 50 -1 16 6 0.0000 4 105 90 315 360 1)\001
4 2 20 50 -1 16 6 0.0000 4 105 90 315 765 2)\001
4 2 20 50 -1 16 6 0.0000 4 105 90 315 1170 3)\001
4 2 20 50 -1 16 6 0.0000 4 105 90 315 1575 4)\001
4 0 20 50 -1 16 6 0.0000 4 75 1050 1260 450 1b : lecture de 1 octet\001
4 2 20 50 -1 16 6 0.0000 4 75 1050 1755 900 2 : lecture de 3 octets\001
4 2 20 50 -1 16 6 0.0000 4 75 1080 1755 1305 3 : \351criture de 2 octets\001
