#FIG 3.2  Produced by xfig version 3.2.7a
Landscape
Center
Metric
A4
100.00
Single
-2
1200 2
1 3 0 1 0 11 51 -1 36 0.000 1 0.0000 765 1755 270 270 765 1755 1035 1755
1 3 0 1 0 0 52 -1 20 0.000 1 0.0000 810 1800 270 270 810 1800 1080 1800
1 3 0 1 0 11 51 -1 36 0.000 1 0.0000 1800 1755 270 270 1800 1755 2070 1755
1 3 0 1 0 0 52 -1 20 0.000 1 0.0000 1845 1800 270 270 1845 1800 2115 1800
1 3 0 1 0 11 51 -1 36 0.000 1 0.0000 2835 1755 270 270 2835 1755 3105 1755
1 3 0 1 0 0 52 -1 20 0.000 1 0.0000 2880 1800 270 270 2880 1800 3150 1800
1 3 0 1 0 11 51 -1 36 0.000 1 0.0000 3870 1755 270 270 3870 1755 4140 1755
1 3 0 1 0 0 52 -1 20 0.000 1 0.0000 3915 1800 270 270 3915 1800 4185 1800
1 3 0 1 0 11 51 -1 36 0.000 1 0.0000 4905 1755 270 270 4905 1755 5175 1755
1 3 0 1 0 0 52 -1 20 0.000 1 0.0000 4950 1800 270 270 4950 1800 5220 1800
2 2 0 1 0 13 51 -1 36 0.000 0 0 -1 0 0 5
	 450 450 1080 450 1080 1125 450 1125 450 450
2 2 0 1 0 0 52 -1 20 0.000 0 0 -1 0 0 5
	 495 495 1125 495 1125 1170 495 1170 495 495
2 1 0 1 0 7 50 -1 -1 0.000 0 0 -1 0 0 2
	 630 450 630 1125
2 1 0 1 0 7 50 -1 -1 0.000 0 0 -1 0 0 2
	 450 585 1080 585
2 1 0 1 0 7 50 -1 -1 0.000 0 0 -1 0 0 2
	 450 720 1080 720
2 1 0 1 0 7 50 -1 -1 0.000 0 0 -1 0 0 2
	 450 855 1080 855
2 1 0 1 0 7 50 -1 -1 0.000 0 0 -1 0 0 2
	 450 990 1080 990
2 1 0 1 0 7 50 -1 -1 0.000 0 0 -1 1 0 2
	1 1 1.00 60.00 120.00
	 0 180 5490 180
2 2 0 1 0 13 51 -1 36 0.000 0 0 -1 0 0 5
	 1485 450 2115 450 2115 1125 1485 1125 1485 450
2 2 0 1 0 0 52 -1 20 0.000 0 0 -1 0 0 5
	 1530 495 2160 495 2160 1170 1530 1170 1530 495
2 1 0 1 0 7 50 -1 -1 0.000 0 0 -1 0 0 2
	 1665 450 1665 1125
2 1 0 1 0 7 50 -1 -1 0.000 0 0 -1 0 0 2
	 1485 585 2115 585
2 1 0 1 0 7 50 -1 -1 0.000 0 0 -1 0 0 2
	 1485 720 2115 720
2 1 0 1 0 7 50 -1 -1 0.000 0 0 -1 0 0 2
	 1485 855 2115 855
2 1 0 1 0 7 50 -1 -1 0.000 0 0 -1 0 0 2
	 1485 990 2115 990
2 2 0 1 0 13 51 -1 36 0.000 0 0 -1 0 0 5
	 2520 450 3150 450 3150 1125 2520 1125 2520 450
2 2 0 1 0 0 52 -1 20 0.000 0 0 -1 0 0 5
	 2565 495 3195 495 3195 1170 2565 1170 2565 495
2 1 0 1 0 7 50 -1 -1 0.000 0 0 -1 0 0 2
	 2700 450 2700 1125
2 1 0 1 0 7 50 -1 -1 0.000 0 0 -1 0 0 2
	 2520 585 3150 585
2 1 0 1 0 7 50 -1 -1 0.000 0 0 -1 0 0 2
	 2520 720 3150 720
2 1 0 1 0 7 50 -1 -1 0.000 0 0 -1 0 0 2
	 2520 855 3150 855
2 1 0 1 0 7 50 -1 -1 0.000 0 0 -1 0 0 2
	 2520 990 3150 990
2 2 0 1 0 0 52 -1 20 0.000 0 0 -1 0 0 5
	 3600 495 4230 495 4230 1170 3600 1170 3600 495
2 1 0 1 0 7 50 -1 -1 0.000 0 0 -1 0 0 2
	 3735 450 3735 1125
2 1 0 1 0 7 50 -1 -1 0.000 0 0 -1 0 0 2
	 3555 585 4185 585
2 1 0 1 0 7 50 -1 -1 0.000 0 0 -1 0 0 2
	 3555 720 4185 720
2 1 0 1 0 7 50 -1 -1 0.000 0 0 -1 0 0 2
	 3555 855 4185 855
2 1 0 1 0 7 50 -1 -1 0.000 0 0 -1 0 0 2
	 3555 990 4185 990
2 2 0 1 0 13 51 -1 36 0.000 0 0 -1 0 0 5
	 3555 450 4185 450 4185 1125 3555 1125 3555 450
2 2 0 1 0 13 51 -1 36 0.000 0 0 -1 0 0 5
	 4590 450 5220 450 5220 1125 4590 1125 4590 450
2 2 0 1 0 0 52 -1 20 0.000 0 0 -1 0 0 5
	 4635 495 5265 495 5265 1170 4635 1170 4635 495
2 1 0 1 0 7 50 -1 -1 0.000 0 0 -1 0 0 2
	 4770 450 4770 1125
2 1 0 1 0 7 50 -1 -1 0.000 0 0 -1 0 0 2
	 4590 585 5220 585
2 1 0 1 0 7 50 -1 -1 0.000 0 0 -1 0 0 2
	 4590 720 5220 720
2 1 0 1 0 7 50 -1 -1 0.000 0 0 -1 0 0 2
	 4590 855 5220 855
2 1 0 1 0 7 50 -1 -1 0.000 0 0 -1 0 0 2
	 4590 990 5220 990
2 1 0 1 0 7 50 -1 -1 0.000 0 0 -1 0 0 2
	 1305 135 1305 225
2 1 0 1 0 7 50 -1 -1 0.000 0 0 -1 0 0 2
	 2340 135 2340 225
2 1 0 1 0 7 50 -1 -1 0.000 0 0 -1 0 0 2
	 3375 135 3375 225
2 1 0 1 0 7 50 -1 -1 0.000 0 0 -1 0 0 2
	 4410 135 4410 225
2 1 0 1 0 7 50 -1 -1 0.000 0 0 -1 0 0 2
	 225 135 225 225
3 0 0 1 1 7 50 -1 -1 0.000 0 0 0 6
	 3150 2115 3150 2205 3060 2205 1890 2205 1800 2205 1800 2295
	 0.000 1.000 1.000 1.000 1.000 0.000
3 0 0 1 1 7 50 -1 -1 0.000 0 0 0 6
	 450 2115 450 2205 540 2205 1710 2205 1800 2205 1800 2295
	 0.000 1.000 1.000 1.000 1.000 0.000
3 0 0 1 1 7 50 -1 -1 0.000 0 0 0 6
	 3600 2115 3600 2205 3690 2205 4320 2205 4410 2205 4410 2295
	 0.000 1.000 1.000 1.000 1.000 0.000
3 0 0 1 1 7 50 -1 -1 0.000 0 0 0 6
	 5220 2115 5220 2205 5130 2205 4500 2205 4410 2205 4410 2295
	 0.000 1.000 1.000 1.000 1.000 0.000
4 1 0 50 -1 16 6 0.0000 4 75 120 540 540 75\001
4 0 0 50 -1 16 6 0.0000 4 15 60 675 675 ..\001
4 0 0 50 -1 16 6 0.0000 4 15 30 675 540 .\001
4 1 0 50 -1 16 6 0.0000 4 75 180 540 810 102\001
4 1 0 50 -1 16 6 0.0000 4 75 60 540 1080 0\001
4 0 0 50 -1 16 6 0.0000 4 75 180 675 810 tata\001
4 1 0 50 -1 16 6 0.0000 4 75 120 540 675 26\001
4 1 0 50 -1 16 6 0.0000 4 75 180 540 945 118\001
4 0 0 50 -1 16 6 0.0000 4 75 180 675 945 toto\001
4 0 0 50 -1 16 6 0.0000 4 90 330 675 1080 <vide>\001
4 1 0 50 -1 16 4 0.0000 4 75 375 765 1755 bla bla bla\001
4 1 0 50 -1 16 6 0.0000 4 90 420 765 1440 nlink = 1\001
4 2 0 50 -1 17 6 0.0000 4 90 300 5445 315 temps\001
4 1 0 50 -1 16 6 0.0000 4 75 120 1575 540 75\001
4 0 0 50 -1 16 6 0.0000 4 15 60 1710 675 ..\001
4 0 0 50 -1 16 6 0.0000 4 15 30 1710 540 .\001
4 1 0 50 -1 16 6 0.0000 4 75 180 1575 810 102\001
4 0 0 50 -1 16 6 0.0000 4 75 180 1710 810 tata\001
4 1 0 50 -1 16 6 0.0000 4 75 120 1575 675 26\001
4 1 0 50 -1 16 6 0.0000 4 75 180 1575 945 118\001
4 0 0 50 -1 16 6 0.0000 4 75 180 1710 945 toto\001
4 1 20 50 -1 18 6 0.0000 4 75 180 1575 1080 118\001
4 0 20 50 -1 18 6 0.0000 4 90 120 1710 1080 titi\001
4 1 0 50 -1 16 4 0.0000 4 75 375 1800 1755 bla bla bla\001
4 1 0 50 -1 16 6 0.0000 4 90 420 1800 1440 nlink = 1\001
4 1 0 50 -1 16 6 0.0000 4 75 120 2610 540 75\001
4 0 0 50 -1 16 6 0.0000 4 15 60 2745 675 ..\001
4 0 0 50 -1 16 6 0.0000 4 15 30 2745 540 .\001
4 1 0 50 -1 16 6 0.0000 4 75 180 2610 810 102\001
4 1 0 50 -1 16 6 0.0000 4 75 180 2610 1080 118\001
4 0 0 50 -1 16 6 0.0000 4 75 180 2745 810 tata\001
4 1 0 50 -1 16 6 0.0000 4 75 120 2610 675 26\001
4 1 0 50 -1 16 6 0.0000 4 75 180 2610 945 118\001
4 0 0 50 -1 16 6 0.0000 4 75 180 2745 945 toto\001
4 0 0 50 -1 16 6 0.0000 4 90 120 2745 1080 titi\001
4 1 0 50 -1 16 4 0.0000 4 75 375 2835 1755 bla bla bla\001
4 1 20 50 -1 18 6 0.0000 4 90 420 2835 1440 nlink = 2\001
4 1 0 50 -1 16 6 0.0000 4 75 120 3645 540 75\001
4 0 0 50 -1 16 6 0.0000 4 15 60 3780 675 ..\001
4 0 0 50 -1 16 6 0.0000 4 15 30 3780 540 .\001
4 1 0 50 -1 16 6 0.0000 4 75 180 3645 810 102\001
4 1 0 50 -1 16 6 0.0000 4 75 180 3645 1080 118\001
4 0 0 50 -1 16 6 0.0000 4 75 180 3780 810 tata\001
4 1 0 50 -1 16 6 0.0000 4 75 120 3645 675 26\001
4 0 0 50 -1 16 6 0.0000 4 75 180 3780 945 toto\001
4 0 0 50 -1 16 6 0.0000 4 90 120 3780 1080 titi\001
4 1 20 50 -1 18 6 0.0000 4 75 60 3645 945 0\001
4 1 0 50 -1 16 4 0.0000 4 75 375 3870 1755 bla bla bla\001
4 1 0 50 -1 16 6 0.0000 4 90 420 3870 1440 nlink = 2\001
4 1 0 50 -1 16 6 0.0000 4 75 120 4680 540 75\001
4 0 0 50 -1 16 6 0.0000 4 15 60 4815 675 ..\001
4 0 0 50 -1 16 6 0.0000 4 15 30 4815 540 .\001
4 1 0 50 -1 16 6 0.0000 4 75 180 4680 810 102\001
4 1 0 50 -1 16 6 0.0000 4 75 180 4680 1080 118\001
4 0 0 50 -1 16 6 0.0000 4 75 180 4815 810 tata\001
4 1 0 50 -1 16 6 0.0000 4 75 120 4680 675 26\001
4 1 0 50 -1 16 6 0.0000 4 75 60 4680 945 0\001
4 0 0 50 -1 16 6 0.0000 4 75 180 4815 945 toto\001
4 0 0 50 -1 16 6 0.0000 4 90 120 4815 1080 titi\001
4 1 0 50 -1 16 4 0.0000 4 75 375 4905 1755 bla bla bla\001
4 1 20 50 -1 18 6 0.0000 4 90 420 4905 1440 nlink = 1\001
4 1 1 50 -1 16 6 0.0000 4 105 810 1800 2385 link ("toto", "titi")\001
4 1 1 50 -1 16 6 0.0000 4 105 600 4410 2385 unlink ("toto")\001
4 1 0 50 -1 16 5 0.0000 4 75 75 225 315 t0\001
4 1 0 50 -1 16 5 0.0000 4 75 75 1305 315 t1\001
4 1 0 50 -1 16 5 0.0000 4 75 75 2340 315 t2\001
4 1 0 50 -1 16 5 0.0000 4 75 75 3375 315 t3\001
4 1 0 50 -1 16 5 0.0000 4 75 75 4410 315 t4\001
4 2 0 50 -1 17 6 0.0000 4 90 270 315 1710 inode\001
4 2 0 50 -1 17 6 0.0000 4 75 180 315 1800 118\001
4 2 0 50 -1 17 6 0.0000 4 105 30 315 630 répertoire\001
4 2 0 50 -1 17 6 0.0000 4 75 360 315 720 courant\001
4 2 0 50 -1 17 6 0.0000 4 90 270 315 855 inode\001
4 2 0 50 -1 17 6 0.0000 4 75 120 315 945 75\001
